^E:\DZ_9_5\DZ_9_5\DEBUG\DZ_9_5.OBJ
E:\WINDOWS KITS\10\LIB\10.0.19041.0\UM\X86\KERNEL32.LIB
E:\WINDOWS KITS\10\LIB\10.0.19041.0\UM\X86\USER32.LIB
E:\WINDOWS KITS\10\LIB\10.0.19041.0\UM\X86\GDI32.LIB
E:\WINDOWS KITS\10\LIB\10.0.19041.0\UM\X86\WINSPOOL.LIB
E:\WINDOWS KITS\10\LIB\10.0.19041.0\UM\X86\COMDLG32.LIB
E:\WINDOWS KITS\10\LIB\10.0.19041.0\UM\X86\ADVAPI32.LIB
E:\WINDOWS KITS\10\LIB\10.0.19041.0\UM\X86\SHELL32.LIB
E:\WINDOWS KITS\10\LIB\10.0.19041.0\UM\X86\OLE32.LIB
E:\WINDOWS KITS\10\LIB\10.0.19041.0\UM\X86\OLEAUT32.LIB
E:\WINDOWS KITS\10\LIB\10.0.19041.0\UM\X86\UUID.LIB
E:\WINDOWS KITS\10\LIB\10.0.19041.0\UM\X86\ODBC32.LIB
E:\WINDOWS KITS\10\LIB\10.0.19041.0\UM\X86\ODBCCP32.LIB
E:\DZ_9_5\DZ_9_5\DEBUG\DZ_9_5.OBJ
C:\WINDOWS\SYSTEM32\TZRES.DLL
C:\WINDOWS\GLOBALIZATION\SORTING\SORTDEFAULT.NLS
E:\PROGRAM FILES (X86)\MICROSOFT VISUAL STUDIO\2019\COMMUNITY\VC\TOOLS\MSVC\14.29.30037\LIB\X86\MSVCPRTD.LIB
E:\PROGRAM FILES (X86)\MICROSOFT VISUAL STUDIO\2019\COMMUNITY\VC\TOOLS\MSVC\14.29.30037\LIB\X86\MSVCRTD.LIB
E:\PROGRAM FILES (X86)\MICROSOFT VISUAL STUDIO\2019\COMMUNITY\VC\TOOLS\MSVC\14.29.30037\LIB\X86\OLDNAMES.LIB
E:\PROGRAM FILES (X86)\MICROSOFT VISUAL STUDIO\2019\COMMUNITY\VC\TOOLS\MSVC\14.29.30037\LIB\X86\VCRUNTIMED.LIB
E:\WINDOWS KITS\10\LIB\10.0.19041.0\UCRT\X86\UCRTD.LIB
